*** Life<ConwayCell> 14x10 ***

Generation = 0, Population = 14.
*......*..
..........
.*.......*
..*...*...
.......*..
*..*......
..........
..........
..*.......
..*.......
..........
...*......
..*.......
.......*..

Generation = 1, Population = 0.
..........
..........
..........
..........
..........
..........
..........
..........
..........
..........
..........
..........
..........
..........

Generation = 2, Population = 0.
..........
..........
..........
..........
..........
..........
..........
..........
..........
..........
..........
..........
..........
..........

Generation = 3, Population = 0.
..........
..........
..........
..........
..........
..........
..........
..........
..........
..........
..........
..........
..........
..........

Generation = 4, Population = 0.
..........
..........
..........
..........
..........
..........
..........
..........
..........
..........
..........
..........
..........
..........

*** Life<ConwayCell> 9x9 ***

Generation = 0, Population = 24.
*.**.....
.......**
.*.*.**.*
.........
..*.*..*.
*.*****..
*....*...
...*..*..
*........

Generation = 1, Population = 22.
.........
.*.**.***
......*.*
..******.
.**.*.*..
..*...*..
.**......
.........
.........

Generation = 2, Population = 13.
.......*.
.....**.*
........*
.**.*....
.*..*....
.....*...
.**......
.........
.........

Generation = 3, Population = 16.
......**.
......*.*
.....*.*.
.***.....
.*****...
.**......
.........
.........
.........

Generation = 4, Population = 14.
......**.
.....*..*
..*...**.
.*...**..
*...*....
.*..*....
.........
.........
.........

*** Life<ConwayCell> 11x11 ***

Generation = 0, Population = 6.
...........
...........
...........
...........
.....*.....
...........
...........
......*....
.........*.
..**.......
...*.......

Generation = 1, Population = 4.
...........
...........
...........
...........
...........
...........
...........
...........
...........
..**.......
..**.......

Generation = 2, Population = 4.
...........
...........
...........
...........
...........
...........
...........
...........
...........
..**.......
..**.......

Generation = 3, Population = 4.
...........
...........
...........
...........
...........
...........
...........
...........
...........
..**.......
..**.......

Generation = 4, Population = 4.
...........
...........
...........
...........
...........
...........
...........
...........
...........
..**.......
..**.......

*** Life<ConwayCell> 14x10 ***

Generation = 0, Population = 7.
..........
.*........
..........
..*.......
.........*
..........
......*...
..*.......
..........
..........
........*.
*.........
..........
..........

Generation = 1, Population = 0.
..........
..........
..........
..........
..........
..........
..........
..........
..........
..........
..........
..........
..........
..........

Generation = 2, Population = 0.
..........
..........
..........
..........
..........
..........
..........
..........
..........
..........
..........
..........
..........
..........

Generation = 3, Population = 0.
..........
..........
..........
..........
..........
..........
..........
..........
..........
..........
..........
..........
..........
..........

Generation = 4, Population = 0.
..........
..........
..........
..........
..........
..........
..........
..........
..........
..........
..........
..........
..........
..........

*** Life<ConwayCell> 9x9 ***

Generation = 0, Population = 2.
.........
......*..
........*
.........
.........
.........
.........
.........
.........

Generation = 1, Population = 0.
.........
.........
.........
.........
.........
.........
.........
.........
.........

Generation = 2, Population = 0.
.........
.........
.........
.........
.........
.........
.........
.........
.........

Generation = 3, Population = 0.
.........
.........
.........
.........
.........
.........
.........
.........
.........

Generation = 4, Population = 0.
.........
.........
.........
.........
.........
.........
.........
.........
.........

*** Life<ConwayCell> 11x11 ***

Generation = 0, Population = 25.
.*...*.*...
...........
..*.....*..
.......*.*.
*.**.......
.**.....*..
....*....*.
....*......
........**.
....**.....
...****.*..

Generation = 1, Population = 22.
...........
...........
........*..
.***....*..
..**....*..
.**........
...*.......
........**.
....**.....
...*..****.
...*..*....

Generation = 2, Population = 18.
...........
...........
..*........
.*.*...***.
...........
.*.........
..*........
....*......
....***....
...*..***..
......*.*..

Generation = 3, Population = 15.
...........
...........
..*.....*..
..*.....*..
..*.....*..
...........
...........
...**......
...**.*....
....*...*..
......*.*..

Generation = 4, Population = 12.
...........
...........
...........
.***...***.
...........
...........
...........
...***.....
...........
...**......
.......*...

*** Life<ConwayCell> 14x10 ***

Generation = 0, Population = 10.
..*.......
........*.
..........
........*.
..........
..........
.....*....
..........
..........
....*...**
..........
.....*.*..
...*......
..........

Generation = 1, Population = 1.
..........
..........
..........
..........
..........
..........
..........
..........
..........
..........
........*.
..........
..........
..........

Generation = 2, Population = 0.
..........
..........
..........
..........
..........
..........
..........
..........
..........
..........
..........
..........
..........
..........

Generation = 3, Population = 0.
..........
..........
..........
..........
..........
..........
..........
..........
..........
..........
..........
..........
..........
..........

Generation = 4, Population = 0.
..........
..........
..........
..........
..........
..........
..........
..........
..........
..........
..........
..........
..........
..........

*** Life<ConwayCell> 9x9 ***

Generation = 0, Population = 10.
.........
.........
**.*.....
*........
.........
.......*.
*.*......
....*..*.
..*......

Generation = 1, Population = 6.
.........
.........
**.......
**.......
.........
.........
.........
.*.*.....
.........

Generation = 2, Population = 4.
.........
.........
**.......
**.......
.........
.........
.........
.........
.........

Generation = 3, Population = 4.
.........
.........
**.......
**.......
.........
.........
.........
.........
.........

Generation = 4, Population = 4.
.........
.........
**.......
**.......
.........
.........
.........
.........
.........

*** Life<ConwayCell> 11x11 ***

Generation = 0, Population = 20.
.*........*
.**........
.*....*....
......*....
.*......*.*
.......*...
..*........
*.*........
...*......*
..**....*..
...*.......

Generation = 1, Population = 20.
.**........
***........
.**........
.......*...
.......*...
...........
.*.........
.***.......
.*.*.......
..***......
..**.......

Generation = 2, Population = 15.
*.*........
*..*.......
*.*........
...........
...........
...........
.*.........
**.*.......
.*.........
.*..*......
..*.*......

Generation = 3, Population = 15.
.*.........
*.**.......
.*.........
...........
...........
...........
***........
**.........
.*.........
.***.......
...*.......

Generation = 4, Population = 12.
.**........
*.*........
.**........
...........
...........
.*.........
*.*........
...........
...........
.*.*.......
...*.......

*** Life<ConwayCell> 14x10 ***

Generation = 0, Population = 16.
.......*..
..........
......*.*.
.*.*......
......*..*
*.....*...
..........
........*.
....*.....
..........
.*.*......
.*..*.....
.....*....
..........

Generation = 1, Population = 5.
..........
.......*..
..........
.......*..
..........
..........
..........
..........
..........
..........
..*.......
..*.*.....
..........
..........

Generation = 2, Population = 2.
..........
..........
..........
..........
..........
..........
..........
..........
..........
..........
...*......
...*......
..........
..........

Generation = 3, Population = 0.
..........
..........
..........
..........
..........
..........
..........
..........
..........
..........
..........
..........
..........
..........

Generation = 4, Population = 0.
..........
..........
..........
..........
..........
..........
..........
..........
..........
..........
..........
..........
..........
..........

*** Life<ConwayCell> 9x9 ***

Generation = 0, Population = 14.
.........
...*.....
*...*....
....**...
*.....*..
...*.....
.*..*.**.
........*
...*.....

Generation = 1, Population = 12.
.........
.........
...***...
....**...
....**...
.....***.
.......*.
.......*.
.........

Generation = 2, Population = 9.
.........
....*....
...*.*...
......*..
.........
....**.*.
.......**
.........
.........

Generation = 3, Population = 11.
.........
....*....
....**...
.........
.....**..
......***
......***
.........
.........

Generation = 4, Population = 12.
.........
....**...
....**...
....*.*..
.....**..
........*
......*.*
.......*.
.........

*** Life<ConwayCell> 11x11 ***

Generation = 0, Population = 14.
...........
...........
**...*.....
.*......*..
...........
.....*.....
....*......
.......*..*
........**.
........*..
.......**..

Generation = 1, Population = 11.
...........
...........
**.........
**.........
...........
...........
...........
........**.
.......***.
...........
.......**..

Generation = 2, Population = 9.
...........
...........
**.........
**.........
...........
...........
...........
.......*.*.
.......*.*.
.........*.
...........

Generation = 3, Population = 7.
...........
...........
**.........
**.........
...........
...........
...........
...........
.........**
........*..
...........

Generation = 4, Population = 6.
...........
...........
**.........
**.........
...........
...........
...........
...........
.........*.
.........*.
...........

*** Life<ConwayCell> 14x10 ***

Generation = 0, Population = 9.
..........
..........
....*.....
..........
..*......*
...*......
..........
..........
*........*
*.........
..........
.........*
..........
....*.....

Generation = 1, Population = 0.
..........
..........
..........
..........
..........
..........
..........
..........
..........
..........
..........
..........
..........
..........

Generation = 2, Population = 0.
..........
..........
..........
..........
..........
..........
..........
..........
..........
..........
..........
..........
..........
..........

Generation = 3, Population = 0.
..........
..........
..........
..........
..........
..........
..........
..........
..........
..........
..........
..........
..........
..........

Generation = 4, Population = 0.
..........
..........
..........
..........
..........
..........
..........
..........
..........
..........
..........
..........
..........
..........

*** Life<ConwayCell> 9x9 ***

Generation = 0, Population = 21.
.........
..**....*
.*.....*.
...*..*.*
..*.*.**.
...**....
**....**.
..*......
......**.

Generation = 1, Population = 21.
.........
..*......
...*...**
..**.**.*
..*.*.**.
.****....
.***.....
.*.......
.........

Generation = 2, Population = 15.
.........
.........
...**.***
..*..*..*
......**.
....**...
*...*....
.*.......
.........

Generation = 3, Population = 19.
.........
.......*.
...******
...***..*
....*.**.
....***..
....**...
.........
.........

Generation = 4, Population = 12.
.........
....**.**
...*....*
........*
.......*.
...*...*.
....*.*..
.........
.........

*** Life<ConwayCell> 11x11 ***

Generation = 0, Population = 13.
..*....*..*
...........
.....*.....
.*.........
........*..
...*.......
.*.........
...*...*...
...........
......*.*..
*..........

Generation = 1, Population = 2.
...........
...........
...........
...........
...........
...........
..*........
...........
.......*...
...........
...........

Generation = 2, Population = 0.
...........
...........
...........
...........
...........
...........
...........
...........
...........
...........
...........

Generation = 3, Population = 0.
...........
...........
...........
...........
...........
...........
...........
...........
...........
...........
...........

Generation = 4, Population = 0.
...........
...........
...........
...........
...........
...........
...........
...........
...........
...........
...........

*** Life<ConwayCell> 14x10 ***

Generation = 0, Population = 13.
..........
..........
.*........
..*.*.....
..........
**...*....
..........
.......*.*
.........*
..*.*...*.
..........
..........
...*......
..........

Generation = 1, Population = 3.
..........
..........
..........
..........
.*........
..........
..........
........*.
.........*
..........
..........
..........
..........
..........

Generation = 2, Population = 0.
..........
..........
..........
..........
..........
..........
..........
..........
..........
..........
..........
..........
..........
..........

Generation = 3, Population = 0.
..........
..........
..........
..........
..........
..........
..........
..........
..........
..........
..........
..........
..........
..........

Generation = 4, Population = 0.
..........
..........
..........
..........
..........
..........
..........
..........
..........
..........
..........
..........
..........
..........

*** Life<ConwayCell> 9x9 ***

Generation = 0, Population = 24.
*..**....
*.**..**.
*.*...*.*
..*..**..
.*..*....
...*.*...
.....**.*
...*.....
..*......

Generation = 1, Population = 24.
.****....
*.*.****.
..*......
..**.***.
..***.*..
.....**..
.....**..
.........
.........

Generation = 2, Population = 17.
.**.*.*..
....***..
..*......
.*...***.
..*......
...*...*.
.....**..
.........
.........

Generation = 3, Population = 16.
...**.*..
.**.*.*..
....*..*.
.**...*..
..*....*.
......*..
......*..
.........
.........

Generation = 4, Population = 20.
..***....
..*.*.**.
......**.
.***..**.
.**...**.
......**.
.........
.........
.........

*** Life<ConwayCell> 11x11 ***

Generation = 0, Population = 24.
..*....**..
.....*..*..
...........
*..........
.........*.
.....*.*...
*...*......
..*.....*.*
..*...***..
...**...**.
.*....*....

Generation = 1, Population = 15.
.......**..
.......**..
...........
...........
...........
...........
...........
.*.*....**.
..*........
..**.**.**.
...........

Generation = 2, Population = 10.
.......**..
.......**..
...........
...........
...........
...........
...........
..*........
.*..*..*...
..**.......
...........

Generation = 3, Population = 7.
.......**..
.......**..
...........
...........
...........
...........
...........
...........
.*.........
..**.......
...........

Generation = 4, Population = 6.
.......**..
.......**..
...........
...........
...........
...........
...........
...........
..*........
..*........
...........

*** Life<ConwayCell> 14x10 ***

Generation = 0, Population = 4.
..........
..........
*.........
..*.......
..........
.......*..
..........
..........
..........
..........
..........
..........
..........
.........*

Generation = 1, Population = 0.
..........
..........
..........
..........
..........
..........
..........
..........
..........
..........
..........
..........
..........
..........

Generation = 2, Population = 0.
..........
..........
..........
..........
..........
..........
..........
..........
..........
..........
..........
..........
..........
..........

Generation = 3, Population = 0.
..........
..........
..........
..........
..........
..........
..........
..........
..........
..........
..........
..........
..........
..........

Generation = 4, Population = 0.
..........
..........
..........
..........
..........
..........
..........
..........
..........
..........
..........
..........
..........
..........

*** Life<ConwayCell> 9x9 ***

Generation = 0, Population = 5.
.........
....*....
......*..
.........
.........
.........
.*......*
.........
.......*.

Generation = 1, Population = 0.
.........
.........
.........
.........
.........
.........
.........
.........
.........

Generation = 2, Population = 0.
.........
.........
.........
.........
.........
.........
.........
.........
.........

Generation = 3, Population = 0.
.........
.........
.........
.........
.........
.........
.........
.........
.........

Generation = 4, Population = 0.
.........
.........
.........
.........
.........
.........
.........
.........
.........
